x,split0_test_score,split1_test_score,split2_test_score,mean_test_score,std_test_score,rank_test_score,split0_train_score,split1_train_score,split2_train_score,mean_train_score,std_train_score,mean_fit_time,std_fit_time,mean_score_time,std_score_time,param_class_weight,param_criterion,param_max_depth,param_max_features,param_min_samples_leaf,param_min_samples_split,param_n_estimators,params
0,0.623794767,0.617539559,0.620744444,0.620692968,0.002553946,1,0.626895196,0.626977931,0.623971167,0.625948098,0.00139831,437.086749,1.88789981,29.45829995,0.023301849,balanced_subsample,gini,3,2,7,61,9430,"{'class_weight': 'balanced_subsample', 'criterion': 'gini', 'max_depth': 3, 'max_features': 2, 'min_samples_leaf': 7, 'min_samples_split': 61, 'n_estimators': 9430}"
1,0.620764548,0.617110417,0.624029486,0.620634819,0.002826167,1,0.624921865,0.626390085,0.622527306,0.624613085,0.001592016,470.7490934,0.907991584,11.08191903,0.044825469,balanced_subsample,gini,3,25,3,96,3233,"{'class_weight': 'balanced_subsample', 'criterion': 'gini', 'max_depth': 3, 'max_features': 25, 'min_samples_leaf': 3, 'min_samples_split': 96, 'n_estimators': 3233}"
2,0.628108708,0.623423137,0.630322854,0.627284911,0.002876382,1,0.632612177,0.633418042,0.629701767,0.631910662,0.001596197,362.0489363,0.406568259,22.69744213,0.020206119,,gini,3,9,9,81,6850,"{'class_weight': None, 'criterion': 'gini', 'max_depth': 3, 'max_features': 9, 'min_samples_leaf': 9, 'min_samples_split': 81, 'n_estimators': 6850}"
3,0.620366331,0.616421188,0.623610428,0.620132652,0.002939622,1,0.624605109,0.625532344,0.622109607,0.624082353,0.001445392,1076.973535,0.960616352,28.43159111,0.082430351,balanced,gini,3,27,10,67,8315,"{'class_weight': 'balanced', 'criterion': 'gini', 'max_depth': 3, 'max_features': 27, 'min_samples_leaf': 10, 'min_samples_split': 67, 'n_estimators': 8315}"
4,0.643431808,0.640814531,0.64724774,0.643831354,0.002641481,1,0.883197338,0.881091958,0.884521623,0.882936973,0.001412207,1525.464948,11.05432631,42.32730627,0.070536578,,gini,,20,7,54,4064,"{'class_weight': None, 'criterion': 'gini', 'max_depth': None, 'max_features': 20, 'min_samples_leaf': 7, 'min_samples_split': 54, 'n_estimators': 4064}"
5,0.624456253,0.620728306,0.628099688,0.624428083,0.003009398,1,0.629284751,0.630064976,0.62661165,0.628653792,0.001478726,431.9139934,0.451468288,16.3252871,0.0227285,,gini,3,18,4,90,4809,"{'class_weight': None, 'criterion': 'gini', 'max_depth': 3, 'max_features': 18, 'min_samples_leaf': 4, 'min_samples_split': 90, 'n_estimators': 4809}"
6,0.620485091,0.61648395,0.623592491,0.620187181,0.002909665,1,0.624694906,0.625598474,0.622138705,0.624144028,0.001465173,1016.728584,2.294431218,23.10085424,0.139324134,balanced_subsample,gini,3,27,6,18,6731,"{'class_weight': 'balanced_subsample', 'criterion': 'gini', 'max_depth': 3, 'max_features': 27, 'min_samples_leaf': 6, 'min_samples_split': 18, 'n_estimators': 6731}"
7,0.620125073,0.616425813,0.623323571,0.619958155,0.00281845,1,0.624387803,0.625524973,0.62173276,0.623881845,0.001588965,340.0743075,0.353033874,8.081270218,0.060168676,balanced,entropy,3,28,5,94,2357,"{'class_weight': 'balanced', 'criterion': 'entropy', 'max_depth': 3, 'max_features': 28, 'min_samples_leaf': 5, 'min_samples_split': 94, 'n_estimators': 2357}"
8,0.627038767,0.621270232,0.62527209,0.624527065,0.002413206,1,0.630203884,0.631168276,0.627302084,0.629558081,0.001643098,489.6926854,1.759223836,25.48353457,0.008886202,balanced_subsample,entropy,3,5,5,18,7838,"{'class_weight': 'balanced_subsample', 'criterion': 'entropy', 'max_depth': 3, 'max_features': 5, 'min_samples_leaf': 5, 'min_samples_split': 18, 'n_estimators': 7838}"
9,0.645960395,0.64322046,0.648468115,0.645882991,0.00214303,1,0.926436995,0.923966458,0.927085044,0.925829499,0.001343673,257.5398608,2.124724662,8.857513587,0.007495418,,entropy,,13,9,18,803,"{'class_weight': None, 'criterion': 'entropy', 'max_depth': None, 'max_features': 13, 'min_samples_leaf': 9, 'min_samples_split': 18, 'n_estimators': 803}"
