,split0_test_score,split1_test_score,split2_test_score,mean_test_score,std_test_score,rank_test_score,split0_train_score,split1_train_score,split2_train_score,mean_train_score,std_train_score,mean_fit_time,std_fit_time,mean_score_time,std_score_time,param_booster,param_colsample_bylevel,param_colsample_bytree,param_learning_rate,param_max_depth,param_n_estimators,param_reg_alpha,param_reg_lambda,param_scale_pos_weight,param_subsample,param_tree_method,params
0,0.4782623145050465,0.4701468411121147,0.4713671862746391,0.473258852164839,0.00357296208730329,1,0.47547742200029797,0.4707059368565496,0.47559149768229614,0.4739249521797146,0.0022766639414406316,99.18873190879822,0.4648209140817931,0.11700574556986491,0.020936150796058522,gblinear,0.15305694405910897,0.1838831414439474,0.011294501616175193,13,593,0.30311608771406995,6.028506444607185e-09,339.01295464950186,0.4997377524616885,auto,"{'booster': 'gblinear', 'colsample_bylevel': 0.15305694405910897, 'colsample_bytree': 0.1838831414439474, 'learning_rate': 0.011294501616175193, 'max_depth': 13, 'n_estimators': 593, 'reg_alpha': 0.30311608771406995, 'reg_lambda': 6.028506444607185e-09, 'scale_pos_weight': 339.01295464950186, 'subsample': 0.4997377524616885, 'tree_method': 'auto'}"
1,0.6400957964766805,0.6333565401304264,0.6379722469687064,0.6371415700950241,0.0028132996212674654,1,0.6386104098720276,0.640516620100646,0.6382313827504547,0.6391194709077094,0.0009999782631686005,169.16126879056296,0.7302232530985335,0.10206063588460286,0.0016950925551921466,gblinear,0.3173803317093984,0.30933618598953794,0.4566917470531786,2,960,7.044761958807972e-07,5.507784502584481e-07,270.12568358449096,0.2990320541416951,exact,"{'booster': 'gblinear', 'colsample_bylevel': 0.3173803317093984, 'colsample_bytree': 0.30933618598953794, 'learning_rate': 0.4566917470531786, 'max_depth': 2, 'n_estimators': 960, 'reg_alpha': 7.044761958807972e-07, 'reg_lambda': 5.507784502584481e-07, 'scale_pos_weight': 270.12568358449096, 'subsample': 0.2990320541416951, 'tree_method': 'exact'}"
