,split0_test_score,split1_test_score,split2_test_score,mean_test_score,std_test_score,rank_test_score,mean_fit_time,std_fit_time,mean_score_time,std_score_time,param_learning_rate,param_max_depth,param_min_child_weight,param_n_estimators,param_reg_alpha,param_scale_pos_weight,param_subsample,params
0,0.6513567695356013,0.650469994927257,0.6505834062168954,0.6508033935435481,0.0003940293421086149,1,67.66265805562337,1.5008205620718387,0.3858173688252767,0.01658127345820925,0.1262263576599785,6,1,51,0.00042953887838957595,9,0.9712004992728949,"{'learning_rate': 0.1262263576599785, 'max_depth': 6, 'min_child_weight': 1, 'n_estimators': 51, 'reg_alpha': 0.00042953887838957595, 'scale_pos_weight': 9, 'subsample': 0.9712004992728949}"
1,0.6447730715589377,0.6450154843748758,0.645149698600245,0.6449794165626621,0.00015585815637624898,1,161.57919065157571,3.269991456822573,0.8149878978729248,0.2755719432996954,0.13470905538472874,7,2,91,4.067614905961328e-09,14,0.6582147957202108,"{'learning_rate': 0.13470905538472874, 'max_depth': 7, 'min_child_weight': 2, 'n_estimators': 91, 'reg_alpha': 4.067614905961328e-09, 'scale_pos_weight': 14, 'subsample': 0.6582147957202108}"
2,0.6478832370125174,0.6471814649145271,0.6469802732107505,0.647348328918753,0.0003870560714946683,1,110.07827639579773,1.0283929067155453,0.5482885837554932,0.033450852052826226,0.13981931663127767,7,1,64,0.04909143173675201,12,0.840917933434441,"{'learning_rate': 0.13981931663127767, 'max_depth': 7, 'min_child_weight': 1, 'n_estimators': 64, 'reg_alpha': 0.04909143173675201, 'scale_pos_weight': 12, 'subsample': 0.840917933434441}"
3,0.6506807369288599,0.6501429159053136,0.6498936247619786,0.6502390959079832,0.000328455309463972,1,163.4718267917633,2.14096118014379,0.7178803284962972,0.042210321369447044,0.048016999730270626,7,2,95,0.2922253793531636,10,0.9148930299290223,"{'learning_rate': 0.048016999730270626, 'max_depth': 7, 'min_child_weight': 2, 'n_estimators': 95, 'reg_alpha': 0.2922253793531636, 'scale_pos_weight': 10, 'subsample': 0.9148930299290223}"
4,0.6485622986482334,0.647872234540603,0.6484370882962016,0.6482905410320413,0.00030017178264879377,1,145.9610574245453,3.145511321741099,0.5864372253417969,0.00692270988547051,0.14348198481791413,7,4,82,7.328836692548244e-05,8,0.7001861678549749,"{'learning_rate': 0.14348198481791413, 'max_depth': 7, 'min_child_weight': 4, 'n_estimators': 82, 'reg_alpha': 7.328836692548244e-05, 'scale_pos_weight': 8, 'subsample': 0.7001861678549749}"
5,0.6413463406750515,0.6372534344083953,0.6376954820231907,0.6387651013607842,0.0018341292129370693,1,154.168816169103,2.5813355983909587,0.6339951356252035,0.01577251599497273,0.15445747737374074,8,1,79,5.934562457814319e-09,13,0.7378261382872583,"{'learning_rate': 0.15445747737374074, 'max_depth': 8, 'min_child_weight': 1, 'n_estimators': 79, 'reg_alpha': 5.934562457814319e-09, 'scale_pos_weight': 13, 'subsample': 0.7378261382872583}"
6,0.6543065157833382,0.6520072931690126,0.6528303564980621,0.6530480614814006,0.0009511959380484212,1,163.65516726175943,1.1115279104256592,0.7167439460754395,0.02015076945964456,0.10577506273298647,7,1,95,2.4810350081357903e-05,2,0.8348751822267952,"{'learning_rate': 0.10577506273298647, 'max_depth': 7, 'min_child_weight': 1, 'n_estimators': 95, 'reg_alpha': 2.4810350081357903e-05, 'scale_pos_weight': 2, 'subsample': 0.8348751822267952}"
7,0.6428831615571116,0.6431081950285402,0.6425241148981164,0.6428384920345444,0.00024053191687909187,1,218.62873657544455,3.1204283939282207,0.8941916624704996,0.03131899388790371,0.03148855449972763,9,1,96,1.2273464376361851e-07,14,0.6139819760822242,"{'learning_rate': 0.03148855449972763, 'max_depth': 9, 'min_child_weight': 1, 'n_estimators': 96, 'reg_alpha': 1.2273464376361851e-07, 'scale_pos_weight': 14, 'subsample': 0.6139819760822242}"
8,0.6509677738319732,0.6491589642906631,0.6489243921578147,0.6496837188575695,0.0009130088290977875,1,209.13095792134604,128.019717713136,1.614611069361369,1.462433434002358,0.11495080036035707,9,0,56,3.8805278274087935e-07,2,0.8908233124458416,"{'learning_rate': 0.11495080036035707, 'max_depth': 9, 'min_child_weight': 0, 'n_estimators': 56, 'reg_alpha': 3.8805278274087935e-07, 'scale_pos_weight': 2, 'subsample': 0.8908233124458416}"
9,0.6347674860275603,0.6354272478704844,0.6330491458119922,0.6344146339399919,0.0010024016171701789,1,374.56274970372516,185.94223063707335,1.0294195810953777,0.43888015383280904,0.19441431162357423,10,3,70,0.018958288282111768,2,0.5354997622550189,"{'learning_rate': 0.19441431162357423, 'max_depth': 10, 'min_child_weight': 3, 'n_estimators': 70, 'reg_alpha': 0.018958288282111768, 'scale_pos_weight': 2, 'subsample': 0.5354997622550189}"
10,0.6328875086496092,0.6318718723020122,0.6328567180108496,0.6325386997862185,0.0004716857613060473,1,122.95936441421509,59.45662044817625,0.6006062030792236,0.288259770142645,0.01,6,5,50,1e-09,1,1.0,"{'learning_rate': 0.01, 'max_depth': 6, 'min_child_weight': 5, 'n_estimators': 50, 'reg_alpha': 1e-09, 'scale_pos_weight': 1, 'subsample': 1.0}"
11,0.6395513495019117,0.6393004253575743,0.640823028294052,0.6398915955969353,0.0006665350335667009,1,154.66514054934183,0.9860929693994848,0.6149699687957764,0.04195372324215083,0.01,6,0,100,1.0,1,0.5,"{'learning_rate': 0.01, 'max_depth': 6, 'min_child_weight': 0, 'n_estimators': 100, 'reg_alpha': 1.0, 'scale_pos_weight': 1, 'subsample': 0.5}"
12,0.6199064600784288,0.6191291103909636,0.6159349362271227,0.6183235192660799,0.001718523245907925,1,227.69590616226196,3.456530813889356,0.9299894968668619,0.03137632523700175,0.2,10,0,100,1.0,15,1.0,"{'learning_rate': 0.2, 'max_depth': 10, 'min_child_weight': 0, 'n_estimators': 100, 'reg_alpha': 1.0, 'scale_pos_weight': 15, 'subsample': 1.0}"
13,0.6514084276546038,0.650519687293328,0.6513079532697134,0.6510786898368174,0.00039739707952719615,1,79.76968638102214,2.683853641758349,0.5033241907755533,0.06076725960091479,0.09018282949648529,6,5,50,1.0,1,0.5,"{'learning_rate': 0.09018282949648529, 'max_depth': 6, 'min_child_weight': 5, 'n_estimators': 50, 'reg_alpha': 1.0, 'scale_pos_weight': 1, 'subsample': 0.5}"
14,0.6367452875498167,0.6379805842492301,0.6365863146360989,0.637104062826885,0.0006231829317812356,1,244.11501797040304,8.84458088274444,0.9722906748453776,0.042023202172986523,0.08838256416855726,10,5,100,1.0,15,0.5,"{'learning_rate': 0.08838256416855726, 'max_depth': 10, 'min_child_weight': 5, 'n_estimators': 100, 'reg_alpha': 1.0, 'scale_pos_weight': 15, 'subsample': 0.5}"
15,0.6521458581282823,0.6519766386892949,0.6515146705581976,0.6518790584990952,0.00026675938881376605,1,179.99654205640158,1.2322226159440834,0.7217414379119873,0.03435986407815267,0.1447166374258656,6,0,100,1.0,1,0.5,"{'learning_rate': 0.1447166374258656, 'max_depth': 6, 'min_child_weight': 0, 'n_estimators': 100, 'reg_alpha': 1.0, 'scale_pos_weight': 1, 'subsample': 0.5}"
16,0.6447787501967919,0.6443906398537891,0.645181343365538,0.6447835760786466,0.0003228203550764226,1,87.78882010777791,1.7850281991677481,0.46439290046691895,0.015337069685789757,0.06532364323273195,6,0,50,1e-09,15,0.5,"{'learning_rate': 0.06532364323273195, 'max_depth': 6, 'min_child_weight': 0, 'n_estimators': 50, 'reg_alpha': 1e-09, 'scale_pos_weight': 15, 'subsample': 0.5}"
17,0.6470252746619634,0.6464361120584458,0.6471711554520575,0.6468775134318047,0.00031774904199283725,1,275.5736969312032,12.609370805704367,1.1657601992289226,0.10127171656499608,0.01,10,0,100,1.0,1,0.5,"{'learning_rate': 0.01, 'max_depth': 10, 'min_child_weight': 0, 'n_estimators': 100, 'reg_alpha': 1.0, 'scale_pos_weight': 1, 'subsample': 0.5}"
18,0.6534716673737746,0.6519424265091314,0.652480511016539,0.6526315392175619,0.0006333798095781034,1,149.94611112276712,4.320600091810425,0.6381138960520426,0.05660708328275611,0.2,6,0,100,1.0,1,1.0,"{'learning_rate': 0.2, 'max_depth': 6, 'min_child_weight': 0, 'n_estimators': 100, 'reg_alpha': 1.0, 'scale_pos_weight': 1, 'subsample': 1.0}"
19,0.6538146577820502,0.6514591296594381,0.6531255340717814,0.6527997767934155,0.0009888457666644896,1,73.67589362462361,0.762493734586946,0.42497531572977704,0.007678279270220952,0.2,6,5,50,1e-09,1,1.0,"{'learning_rate': 0.2, 'max_depth': 6, 'min_child_weight': 5, 'n_estimators': 50, 'reg_alpha': 1e-09, 'scale_pos_weight': 1, 'subsample': 1.0}"
20,0.654809770999292,0.65340093318132,0.6535786500329293,0.6539297900181381,0.0006264619561626642,1,146.61524828275046,3.30844374702474,0.6075417995452881,0.020958708399807065,0.14410260995093,6,5,100,1.0,1,1.0,"{'learning_rate': 0.14410260995093, 'max_depth': 6, 'min_child_weight': 5, 'n_estimators': 100, 'reg_alpha': 1.0, 'scale_pos_weight': 1, 'subsample': 1.0}"
21,0.6453966068415115,0.6446196940969917,0.6443741022857052,0.6447968054602692,0.0004358174066198873,1,94.25212041536967,1.7364976519377495,0.4546252091725667,0.010502679053502655,0.19910101645419026,6,0,58,0.00019728830577773343,14,0.518011536043061,"{'learning_rate': 0.19910101645419026, 'max_depth': 6, 'min_child_weight': 0, 'n_estimators': 58, 'reg_alpha': 0.00019728830577773343, 'scale_pos_weight': 14, 'subsample': 0.518011536043061}"
22,0.6525706396247792,0.6517248120458672,0.6513227507995727,0.6518727395089483,0.0005200759756705955,1,82.0834596157074,2.976341012280874,0.4431113402048747,0.015970897916553657,0.15466823429556614,6,0,50,1.0,1,0.5,"{'learning_rate': 0.15466823429556614, 'max_depth': 6, 'min_child_weight': 0, 'n_estimators': 50, 'reg_alpha': 1.0, 'scale_pos_weight': 1, 'subsample': 0.5}"
23,0.6534278455704454,0.6520851475787139,0.6529870844486197,0.6528333610896889,0.000558829243522734,1,526.0232713222504,245.62595027637636,0.7550793488820394,0.02516484254221774,0.0944627495259136,8,0,100,1.0,1,1.0,"{'learning_rate': 0.0944627495259136, 'max_depth': 8, 'min_child_weight': 0, 'n_estimators': 100, 'reg_alpha': 1.0, 'scale_pos_weight': 1, 'subsample': 1.0}"
24,0.6535516178605334,0.6528036735030109,0.6544066248978107,0.6535873017533174,0.000654886343536976,1,142.93368538220724,2.7056124254702714,0.5870962142944336,0.01296430422497061,0.14387202885849015,6,0,100,1e-09,1,1.0,"{'learning_rate': 0.14387202885849015, 'max_depth': 6, 'min_child_weight': 0, 'n_estimators': 100, 'reg_alpha': 1e-09, 'scale_pos_weight': 1, 'subsample': 1.0}"
25,0.6513379129900551,0.6493934714988838,0.6511162215306587,0.6506158696240363,0.000869091348506167,1,162.3192536830902,1.5748787769925832,0.7764807542165121,0.025992226116311624,0.05844886631962355,10,3,70,4.1079230998061834e-08,1,0.9218606326227872,"{'learning_rate': 0.05844886631962355, 'max_depth': 10, 'min_child_weight': 3, 'n_estimators': 70, 'reg_alpha': 4.1079230998061834e-08, 'scale_pos_weight': 1, 'subsample': 0.9218606326227872}"
26,0.6520676021248493,0.6515536990264916,0.6529911556081236,0.652204148292024,0.0005947273573414376,1,153.09960452715555,3.3086508641395938,0.5816932519276937,0.007814957541901094,0.14942876522011198,6,5,100,1e-09,1,0.5,"{'learning_rate': 0.14942876522011198, 'max_depth': 6, 'min_child_weight': 5, 'n_estimators': 100, 'reg_alpha': 1e-09, 'scale_pos_weight': 1, 'subsample': 0.5}"
27,0.6515371440953786,0.6511043464578319,0.6515290876650404,0.651390192773971,0.0002021506267698985,1,104.9343904654185,4.739125188674613,0.561805804570516,0.05222739896371504,0.06624657506621481,8,5,52,5.218702751501623e-07,1,0.5414952743010634,"{'learning_rate': 0.06624657506621481, 'max_depth': 8, 'min_child_weight': 5, 'n_estimators': 52, 'reg_alpha': 5.218702751501623e-07, 'scale_pos_weight': 1, 'subsample': 0.5414952743010634}"
28,0.6534802859085399,0.6523725531749573,0.6535859170380305,0.6531462515874562,0.0005487843589889299,1,68.90665435791016,1.5471332103927926,0.4226127465565999,0.013205098182734772,0.14994603926734418,6,5,50,1.0,1,1.0,"{'learning_rate': 0.14994603926734418, 'max_depth': 6, 'min_child_weight': 5, 'n_estimators': 50, 'reg_alpha': 1.0, 'scale_pos_weight': 1, 'subsample': 1.0}"
29,0.6534716673737746,0.6519424265091314,0.652480511016539,0.6526315392175619,0.0006333798095781034,1,140.2066729068756,2.900829057002722,0.5685218175252279,0.014842522840351912,0.2,6,0,100,1.0,1,1.0,"{'learning_rate': 0.2, 'max_depth': 6, 'min_child_weight': 0, 'n_estimators': 100, 'reg_alpha': 1.0, 'scale_pos_weight': 1, 'subsample': 1.0}"
